module gitlab.com/whisperer/sosiv.io/service-string-encoder

go 1.17

require (
	google.golang.org/grpc v1.43.0
	google.golang.org/protobuf v1.27.1
)

require (
	github.com/golang/protobuf v1.5.2 // indirect
	golang.org/x/net v0.0.0-20211216030914-fe4d6282115f // indirect
	golang.org/x/sys v0.0.0-20211216021012-1d35b9e2eb4e // indirect
	golang.org/x/text v0.3.7 // indirect
	google.golang.org/genproto v0.0.0-20211208223120-3a66f561d7aa // indirect
)
